{
  "_note1": "KEEP THIS FILE! Check it into a version control system (VCS) like git.",
  "_note2": "ObjectBox manages crucial IDs for your object model. See docs for details.",
  "_note3": "If you have VCS merge conflicts, you must resolve them according to ObjectBox docs.",
  "entities": [
    {
      "id": "1:1364315807254756403",
      "lastPropertyId": "2:2057861298676944321",
      "name": "PhoneBook",
      "properties": [
        {
          "id": "1:132309433705705884",
          "name": "id"
        },
        {
          "id": "2:2057861298676944321",
          "name": "name"
        }
      ]
    },
    {
      "id": "2:498446544899459604",
      "lastPropertyId": "5:1912503318550557383",
      "name": "Contact",
      "properties": [
        {
          "id": "1:2185674019716060730",
          "name": "id"
        },
        {
          "id": "2:5959148304227244005",
          "name": "firstName"
        },
        {
          "id": "3:2823467863641733243",
          "name": "lastName"
        },
        {
          "id": "4:2440289079851102884",
          "name": "phoneNumber"
        },
        {
          "id": "5:1912503318550557383",
          "indexId": "1:340646595018605757",
          "name": "phoneBookId"
        }
      ]
    }
  ],
  "lastEntityId": "2:498446544899459604",
  "lastIndexId": "1:340646595018605757",
  "lastSequenceId": "0:0",
  "modelVersion": 2,
  "retiredEntityUids": [],
  "retiredIndexUids": [],
  "retiredPropertyUids": [],
  "version": 1
}